Chapter 5 Data Cleaning | A Minimal Book Example
…
    set_names

The following object is masked from 'package:tidyr':

    extract

blood3 <- readxl::read_xls("blood_donors_2.xls")

5.3 Visualising the data in R

Next we visualize the data

blood3
# A tibble: 25 × 6
      id    hb   hct   sex bldgrp pdonor
   <dbl> <dbl> <dbl> <dbl>  <dbl>  <dbl>
 1     1 10.5   31.8     1      3      3
 2     2 11.9   37.2     1      4      0
 3     3  1     26       1      1      1
 4     4  8.90  26.8     1      1      3
 5     5  7.80  24.2     1      1      2
 6     6 10     30.9     1      2      1
 7     7 10.4   33.9     1      2      0
 8     8 11.3   35       1      3      1
 9     9 16.4   NA       1      4      1
10    10 14.4   43.6     1      4      1
# ℹ 15 more rows
…
