…
<img src="Descriptive-Statistics_files/figure-html/unnamed-chunk-13-1.png" width="672" />

## Continuous variables

For this section we will use the `NewDrug_clean.dta` dataset


```r
newdrug <-  
    haven::read_dta("./Data/NewDrug_clean.dta") %>% 
    mutate(sex  = haven::as_factor(sex), treat = haven::as_factor(treat)) %>% 
    haven::zap_labels() 

newdrug
# A tibble: 50 × 7
   id    treat     age sex     bp1   bp2 bpdiff
   <chr> <fct>   <dbl> <fct> <dbl> <dbl>  <dbl>
 1 C1    Control    63 F      97.4  93.1   4.30
 2 C2    Control    56 F      97.2  92.4   4.80
 3 C6    Control    62 F     103.   99.7   3.70
 4 C7    Control    61 F      90.1  88.4   1.70
 5 C9    Control    73 F      96.4  91.1   5.30
 6 C10   Control    57 F      98.6  90.5   8.10
 7 C13   Control    61 F      97.4  93.8   3.60
 8 C14   Control    66 F      97.4  92.6   4.80
 9 A18   Control    51 F      92.2  86.2   6   
10 A20   Control    65 F      96.9  90.4   6.5 
# ℹ 40 more rows
…
