Chapter 7 Descriptive Statistics and graphs | Medical Statistics using R
…
7.1 Categorical Variable

For this section we use the Titanic data set

titanic2 <-  
    haven::read_dta("titanic2.dta") %>% 
    mutate(sex  = haven::as_factor(sex),
           died = haven::as_factor(died),
           age  = haven::as_factor(age),
           class = haven::as_factor(class)) %>% 
    haven::zap_labels()

titanic2
# A tibble: 2,201 × 4
   class age   sex   died 
   <fct> <fct> <fct> <fct>
 1 first adult male  No   
 2 first adult male  No   
 3 first adult male  No   
 4 first adult male  No   
 5 first adult male  No   
 6 first adult male  No   
 7 first adult male  No   
 8 first adult male  No   
 9 first adult male  No   
10 first adult male  No   
# ℹ 2,191 more rows
…
7.2 Continuous variables

For this section we will use the NewDrug_clean.dta dataset

newdrug <-  
    haven::read_dta("NewDrug_clean.dta") %>% 
    mutate(sex  = haven::as_factor(sex), treat = haven::as_factor(treat)) %>% 
    haven::zap_labels() 

newdrug
# A tibble: 50 × 7
   id    treat     age sex     bp1   bp2 bpdiff
   <chr> <fct>   <dbl> <fct> <dbl> <dbl>  <dbl>
 1 C1    Control    63 F      97.4  93.1   4.30
 2 C2    Control    56 F      97.2  92.4   4.80
 3 C6    Control    62 F     103.   99.7   3.70
 4 C7    Control    61 F      90.1  88.4   1.70
 5 C9    Control    73 F      96.4  91.1   5.30
 6 C10   Control    57 F      98.6  90.5   8.10
 7 C13   Control    61 F      97.4  93.8   3.60
 8 C14   Control    66 F      97.4  92.6   4.80
 9 A18   Control    51 F      92.2  86.2   6   
10 A20   Control    65 F      96.9  90.4   6.5 
# ℹ 40 more rows
…
